<?xml version="1.0" encoding="utf-8"?>
<!-- Generator: Adobe Illustrator 24.0.0, SVG Export Plug-In . SVG Version: 6.00 Build 0)  -->
<svg version="1.1" id="Component_45_1" xmlns="http://www.w3.org/2000/svg" xmlns:xlink="http://www.w3.org/1999/xlink" x="0px"
	 y="0px" viewBox="0 0 48 48" enable-background="new 0 0 48 48" xml:space="preserve">
<path fill="#DB1E5E" d="M24,0C10.8,0,0,10.8,0,24s10.7,24,24,24s24-10.7,24-24S37.2,0,24,0z M24,46.5C11.6,46.5,1.5,36.4,1.5,24
	S11.6,1.5,24,1.5S46.5,11.6,46.5,24S36.4,46.5,24,46.5z"/>
<path fill="#DB1E5E" d="M25.1,34.1L32.7,21c0.5-0.9-0.1-1.9-1.1-1.9H16.4c-1,0-1.6,1.1-1.1,1.9l7.6,13.1
	C23.4,34.9,24.6,34.9,25.1,34.1z"/>
</svg>
