<?xml version="1.0" encoding="utf-8"?>
<!-- Generator: Adobe Illustrator 24.0.0, SVG Export Plug-In . SVG Version: 6.00 Build 0)  -->
<svg version="1.1" id="Component_45_1" xmlns="http://www.w3.org/2000/svg" xmlns:xlink="http://www.w3.org/1999/xlink" x="0px"
	 y="0px" viewBox="0 0 48 48" enable-background="new 0 0 48 48" xml:space="preserve">
<path fill="#409EA3" d="M24,0.2C10.9,0.2,0.2,10.9,0.2,24S10.9,47.8,24,47.8S47.8,37.1,47.8,24S37.1,0.2,24,0.2z M24,46.2
	c-12.3,0-22.2-10-22.2-22.2S11.7,1.8,24,1.8s22.2,10,22.2,22.2S36.3,46.2,24,46.2z"/>
<g id="pictogramme_œil" transform="translate(209.784 970.783)">
	<path id="pictogramme_œil-2" fill="#409EA3" d="M-187.4-953.9l-0.7-3.2l-1.1,0.2l0.7,3.2L-187.4-953.9z M-191.6-952.7l-2-2.7
		l-0.9,0.7l2,2.7L-191.6-952.7z M-177.1-954.7l-0.9-0.7l-2,2.7l0.9,0.7L-177.1-954.7z M-194.5-938.9l0.9,0.7l2-2.7l-0.9-0.7
		L-194.5-938.9z M-175.7-947.2c-0.2-0.2-4.6-4.7-10.1-4.7s-9.9,4.5-10.1,4.7c-0.2,0.2-0.2,0.6,0,0.8s4.6,4.7,10.1,4.7
		s9.9-4.5,10.1-4.7C-175.5-946.6-175.5-947-175.7-947.2z M-194.6-946.8c1.5-1.3,3.2-2.4,5-3.2c-1.5,1.8-1.5,4.5,0,6.4
		C-191.5-944.4-193.2-945.4-194.6-946.8z M-185.8-942.9c-2.1,0-3.9-1.7-3.9-3.9s1.7-3.9,3.9-3.9c2.1,0,3.9,1.7,3.9,3.9l0,0
		C-181.9-944.7-183.7-942.9-185.8-942.9L-185.8-942.9L-185.8-942.9z M-181.9-943.6c1.5-1.8,1.5-4.5,0-6.4c1.8,0.8,3.5,1.8,5,3.2
		C-178.4-945.4-180.1-944.4-181.9-943.6L-181.9-943.6z M-182.4-956.8l-1.1-0.2l-0.7,3.2l1.1,0.2L-182.4-956.8z M-185.8-949
		c-0.1,0-0.2,0-0.3,0c0.3,0.6,0.2,1.3-0.4,1.6c-0.5,0.3-1,0.2-1.4-0.1c-0.4,1.2,0.2,2.5,1.4,2.8c1.2,0.4,2.5-0.2,2.8-1.4
		c0.4-1.2-0.2-2.5-1.4-2.8C-185.3-949-185.5-949-185.8-949L-185.8-949z M-179.9-940.9l2,2.7l0.9-0.7l-2-2.7L-179.9-940.9z
		 M-184.2-939.7l0.7,3.2l1.1-0.2l-0.7-3.2L-184.2-939.7z M-189.2-936.8l1.1,0.2l0.7-3.2l-1.1-0.2L-189.2-936.8z"/>
</g>
</svg>
