<?xml version="1.0" encoding="utf-8"?>
<!-- Generator: Adobe Illustrator 24.0.0, SVG Export Plug-In . SVG Version: 6.00 Build 0)  -->
<svg version="1.1" id="Component_45_1" xmlns="http://www.w3.org/2000/svg" xmlns:xlink="http://www.w3.org/1999/xlink" x="0px"
	 y="0px" viewBox="0 0 48 48" style="enable-background:new 0 0 48 48;" xml:space="preserve">
<style type="text/css">
	.st0{fill:#A44786;}
</style>
<g>
	<g transform="matrix(1, 0, 0, 1, 184, 911)">
		<g id="Ellipse_40-5_1_" transform="translate(9 6)">
			<g>
				<path class="st0" d="M-169-869.8c-12.8,0-23.1-10.4-23.1-23.2c0-12.8,10.4-23.1,23.1-23.1c12.8,0,23.2,10.4,23.2,23.1
					C-145.8-880.2-156.2-869.8-169-869.8z M-169-914.6c-11.9,0-21.6,9.7-21.6,21.6c0,11.9,9.7,21.7,21.6,21.7
					c11.9,0,21.7-9.7,21.7-21.7C-147.3-904.9-157.1-914.6-169-914.6z"/>
			</g>
		</g>
	</g>
	<g id="Recherche_icone_1_" transform="translate(209.403 898.404)">
		<g id="Recherche_icone-2_1_">
			<path class="st0" d="M-178.8-864.1l-5.2-5.2c-0.1-0.1-0.1-0.2-0.1-0.4c0-0.1,0.1-0.3,0.1-0.4l0.8-0.8l-1.3-1.3
				c-0.4,0.3-0.7,0.6-1.1,0.8c-1,0.6-2.1,0.9-3.3,0.9c-1.8,0-3.6-0.7-4.9-2c-2.7-2.7-2.7-7,0-9.7s7-2.7,9.7,0
				c2.2,2.2,2.6,5.5,1.2,8.2c-0.2,0.4-0.5,0.8-0.8,1.1l1.3,1.3l0.8-0.8c0.2-0.2,0.5-0.2,0.7,0l0,0l5.2,5.2c0.2,0.2,0.2,0.5,0,0.7
				l-2.3,2.3c-0.1,0.1-0.2,0.1-0.4,0.1C-178.6-864-178.7-864-178.8-864.1z M-183-869.6l4.5,4.5l1.5-1.5l-4.5-4.5L-183-869.6z
				 M-193.1-881.4c-2.3,2.3-2.3,6,0,8.3c1.8,1.8,4.7,2.2,7,1c0.5-0.3,0.9-0.6,1.3-1c0.4-0.4,0.7-0.8,1-1.3c1.3-2.3,0.9-5.1-1-7
				c-1.1-1.1-2.6-1.7-4.1-1.7C-190.5-883.1-192-882.5-193.1-881.4L-193.1-881.4z M-192.1-879.7c-0.2-0.2-0.2-0.5,0-0.7l0,0
				c1.7-1.7,4.6-1.7,6.3,0c0.2,0.2,0.2,0.5,0,0.7l0,0c-0.1,0.1-0.2,0.1-0.4,0.1c-0.1,0-0.3-0.1-0.4-0.1c-1.4-1.4-3.6-1.4-4.9,0
				c-0.1,0.1-0.2,0.1-0.4,0.1C-191.9-879.5-192.1-879.6-192.1-879.7L-192.1-879.7z"/>
		</g>
	</g>
</g>
</svg>
