<svg id="Component_47_1" data-name="Component 47 – 1" xmlns="http://www.w3.org/2000/svg" width="122.765" height="123.56" viewBox="0 0 122.765 123.56">
  <g id="Path_59" data-name="Path 59" transform="matrix(0.966, 0.259, -0.259, 0.966, 26.173, 0)" fill="#00d3b7">
    <path d="M 79 99.62343597412109 L 21 99.62343597412109 C 18.36685752868652 99.62343597412109 15.81327152252197 99.10806274414062 13.41017150878906 98.09164428710938 C 11.08831405639648 97.10957336425781 9.002742767333984 95.70334625244141 7.211414337158203 93.91201782226562 C 5.420085906982422 92.12068939208984 4.013857364654541 90.03511810302734 3.031785726547241 87.71326446533203 C 2.015371322631836 85.31015777587891 1.5 82.75657653808594 1.5 80.12343597412109 L 1.5 21.00000381469727 C 1.5 18.36686134338379 2.015371322631836 15.81327533721924 3.031785726547241 13.41017532348633 C 4.013857364654541 11.08831787109375 5.420085906982422 9.00274658203125 7.211414337158203 7.211418151855469 C 9.002742767333984 5.420089244842529 11.08831405639648 4.013860702514648 13.41017150878906 3.031789302825928 C 15.81327152252197 2.015375137329102 18.36685752868652 1.500003695487976 21 1.500003695487976 L 79 1.500003695487976 C 81.63314056396484 1.500003695487976 84.18672943115234 2.015375137329102 86.58981323242188 3.031789302825928 C 88.91168212890625 4.013860702514648 90.99724578857422 5.420089244842529 92.78858947753906 7.211418151855469 C 94.57991790771484 9.00274658203125 95.98614501953125 11.08831787109375 96.96821594238281 13.41017532348633 C 97.98462677001953 15.81327533721924 98.5 18.36686134338379 98.5 21.00000381469727 L 98.5 80.12343597412109 C 98.5 82.75657653808594 97.98462677001953 85.31015777587891 96.96821594238281 87.71326446533203 C 95.98614501953125 90.03511810302734 94.57991790771484 92.12068939208984 92.78858947753906 93.91201782226562 C 90.99724578857422 95.70334625244141 88.91168212890625 97.10957336425781 86.58981323242188 98.09164428710938 C 84.18672943115234 99.10806274414062 81.63314056396484 99.62343597412109 79 99.62343597412109 Z" stroke="none"/>
    <path d="M 21 2.999992370605469 C 16.19203186035156 2.999992370605469 11.67182922363281 4.872314453125 8.272079467773438 8.272071838378906 C 4.872322082519531 11.67182922363281 3 16.19202423095703 3 20.99999237060547 L 3 80.12344360351562 C 3 84.93141174316406 4.872322082519531 89.45161437988281 8.272079467773438 92.85136413574219 C 11.67182922363281 96.25112152099609 16.19203186035156 98.12344360351562 21 98.12344360351562 L 79 98.12344360351562 C 83.80796813964844 98.12344360351562 88.32817077636719 96.25112152099609 91.72792053222656 92.85136413574219 C 95.12767791748047 89.45161437988281 97 84.93141174316406 97 80.12344360351562 L 97 20.99999237060547 C 97 16.19202423095703 95.12767791748047 11.67182922363281 91.72792053222656 8.272071838378906 C 88.32817077636719 4.872314453125 83.80796813964844 2.999992370605469 79 2.999992370605469 L 21 2.999992370605469 M 21 -7.62939453125e-06 L 79 -7.62939453125e-06 C 90.59796905517578 -7.62939453125e-06 100 9.402008056640625 100 20.99999237060547 L 100 80.12344360351562 C 100 91.72142791748047 90.59796905517578 101.1234436035156 79 101.1234436035156 L 21 101.1234436035156 C 9.402015686035156 101.1234436035156 0 91.72142791748047 0 80.12344360351562 L 0 20.99999237060547 C 0 9.402008056640625 9.402015686035156 -7.62939453125e-06 21 -7.62939453125e-06 Z" stroke="none" fill="#00d3b7"/>
  </g>
  <path id="Path_111" data-name="Path 111" d="M169.728,128.921l-2.536-.711a2.293,2.293,0,0,1-1.058-.733l-.728-.995a1.832,1.832,0,0,0-1.077-.641l-2.429-.328a2.455,2.455,0,0,1-1.168-.561l-8.614-8.211a1.959,1.959,0,0,0-1.174-.47h-1.191a1.024,1.024,0,0,0-.9.643l-1.084,3.116a1.979,1.979,0,0,1-.827.958l-5.84,3.047a1.438,1.438,0,0,1-1.2-.007l-4.52-2.43c-.331-.178-.595-.018-.588.358l.08,4.828a.4.4,0,0,1-.608.4l-4.89-2.241a3.71,3.71,0,0,0-1.3-.284H123.2a.552.552,0,0,0-.563.671l.48,2.733a1.47,1.47,0,0,0,.734.96l5.508,2.587a1.78,1.78,0,0,1,.823.938l3.06,9.624a2.179,2.179,0,0,1-.051,1.279l-4.285,10.49a.9.9,0,0,0,.3,1.025l4.916,3.5a2.9,2.9,0,0,0,1.233.448l2.523.2a5.835,5.835,0,0,1,1.317.291l7.275,2.712a.541.541,0,0,0,.751-.434l.312-1.845a1.407,1.407,0,0,1,.737-.945l2.94-1.291a1.926,1.926,0,0,1,1.261-.035l7.61,2.852a1.657,1.657,0,0,0,1.23-.1l5.248-2.966a.5.5,0,0,0,.118-.823l-2.727-2.8a1.06,1.06,0,0,1-.187-1.1l1.875-4.015a2.31,2.31,0,0,0,.136-1.281l-.956-4.187a.469.469,0,0,0-.739-.319l-1.345.79c-.324.191-.587.04-.587-.336v-1.038a1.641,1.641,0,0,1,.525-1.115l4.874-4.034a2.669,2.669,0,0,0,.724-1.085l1.916-6.249A.661.661,0,0,0,169.728,128.921Zm5.438,36.27-.85-3.661a.36.36,0,0,0-.652-.2l-2.442,2.272a1.374,1.374,0,0,0-.372,1.133l.769,4.075a1.507,1.507,0,0,0,.741.962l.915.436a.571.571,0,0,0,.815-.358l1.029-3.345A2.981,2.981,0,0,0,175.166,165.191Z" transform="translate(-87.93 -79.448)" fill="none" stroke="#fff" stroke-width="2"/>
</svg>
