<?xml version="1.0" encoding="utf-8"?>
<!-- Generator: Adobe Illustrator 24.0.0, SVG Export Plug-In . SVG Version: 6.00 Build 0)  -->
<svg version="1.1" id="Layer_1" xmlns="http://www.w3.org/2000/svg" xmlns:xlink="http://www.w3.org/1999/xlink" x="0px" y="0px"
	 viewBox="0 0 448 448" enable-background="new 0 0 448 448" xml:space="preserve">
<g>
	<path fill="#FFFFFF" d="M407.7,105.3H332l-9.8-48.8c-2.4-12.2-13.2-21.1-25.7-21.1H150.4c-12.4,0-23.2,8.9-25.7,21.1l-9.8,48.8
		H39.3C17.6,105.3,0,122.9,0,144.6v227c0,21.7,17.6,39.3,39.3,39.3h368.4c21.7,0,39.3-17.6,39.3-39.3v-227
		C447,122.9,429.4,105.3,407.7,105.3z M150.4,61.6h146.1l8.7,43.7H141.7L150.4,61.6z M420.8,371.6c0,7.2-5.9,13.1-13.1,13.1H39.3
		c-7.2,0-13.1-5.9-13.1-13.1v-227c0-7.2,5.9-13.1,13.1-13.1h368.4c7.2,0,13.1,5.9,13.1,13.1V371.6z"/>
	<path fill="#FFFFFF" d="M223.5,161.2c-53.4,0-96.9,43.5-96.9,96.9s43.5,96.9,96.9,96.9s96.9-43.5,96.9-96.9
		S276.9,161.2,223.5,161.2z M223.5,328.8c-39,0-70.7-31.7-70.7-70.7s31.7-70.7,70.7-70.7s70.7,31.7,70.7,70.7
		S262.5,328.8,223.5,328.8z"/>
	<path fill="#FFFFFF" d="M111.7,161.2H69.8c-7.2,0-13.1,5.9-13.1,13.1c0,7.2,5.9,13.1,13.1,13.1h41.9c7.2,0,13.1-5.9,13.1-13.1
		C124.8,167,119,161.2,111.7,161.2z"/>
</g>
</svg>
