<?xml version="1.0" encoding="utf-8"?>
<!-- Generator: Adobe Illustrator 24.0.0, SVG Export Plug-In . SVG Version: 6.00 Build 0)  -->
<svg version="1.1" id="Layer_1" xmlns="http://www.w3.org/2000/svg" xmlns:xlink="http://www.w3.org/1999/xlink" x="0px" y="0px"
	 viewBox="0 0 448 448" enable-background="new 0 0 448 448" xml:space="preserve">
<g>
	<path id="Rectangle_14_1_" fill="#DB1E5E" d="M185.4,7L364,54.9c55.9,15,89.1,72.5,74.1,128.4l-49.3,183.9
		c-15,55.9-72.5,89.1-128.4,74.1L81.7,393.5C25.8,378.5-7.4,321,7.6,265.1L56.9,81.2C71.9,25.2,129.4-8,185.4,7z"/>
	<g id="Path_164">
		<path fill="#FFFFFF" d="M223.8,115.7c3.1,0,6.1,0.2,9.2,0.4l-6.5,32.3c-0.9,0-1.7-0.1-2.6-0.1c-0.2,0-0.5,0-0.7,0
			c-20.1,0-39,7.8-53.3,21.9c-14.3,14.2-22.3,33-22.5,53.2c-0.2,20.3,7.5,39.4,21.7,53.8c14.2,14.5,33.2,22.5,53.4,22.7
			c0.2,0,0.5,0,0.7,0c0.2,0,0.4,0,0.7,0c3.2,0,6.3-0.2,9.4-0.6l10.1,31.3c-6.1,1.1-12.4,1.7-18.6,1.7l-0.6,0c0,0,0,0,0,0
			c0,0,0,0,0,0l-0.1,0c-28.9,0-56.1-11.2-76.5-31.7c-20.5-20.4-31.7-47.6-31.8-76.5c0-28.9,11.2-56.1,31.6-76.6
			C167.7,127,194.8,115.7,223.8,115.7 M260.9,122.2c19,7.2,35.8,19.5,48.4,35.4l-28.5,16.4c-7.3-8.4-16.3-15-26.5-19.5L260.9,122.2
			 M324.2,182.9c5.4,13,8.2,27.1,8.2,41.2c0.1,17.2-4,34.1-11.9,49.3l-27.1-18.9c4.1-9.6,6.3-19.9,6.3-30.4c0,0,0,0,0-0.1
			c0-8.4-1.4-16.8-4.1-24.7L324.2,182.9 M276.8,278.2l27.1,18.8c-9.4,10.1-20.7,18.4-33.1,24.5l-10.3-31.3
			C266.4,287,271.9,282.9,276.8,278.2 M223.8,107.7c-64.2,0.1-116.2,52.2-116.2,116.5c0.1,64.2,52.1,116.2,116.3,116.2
			c0,0,0.1,0,0.1,0c0.2,0,0.4,0,0.7,0c9.8,0,19.5-1.3,28.9-3.8l-14.9-46.3c-4.9,1.2-9.9,1.7-14.9,1.7c-0.2,0-0.4,0-0.6,0
			c-0.2,0-0.4,0-0.6,0c-37.5-0.3-67.5-31-67.2-68.4c0.3-37.2,30.6-67.2,67.8-67.2c0.2,0,0.4,0,0.6,0c2.9,0,6.2,0.3,9.1,0.6l9.7-47.8
			C236.3,108.2,230.1,107.7,223.8,107.7L223.8,107.7z M254.8,111.8l-9.7,47.8c13.6,4.6,25.3,13.3,33.7,24.9l42.2-24.3
			C305.2,136.8,281.8,119.7,254.8,111.8L254.8,111.8z M327.8,171.6l-42.2,24.3c4.1,8.8,6.2,18.4,6.2,28.1c-0.1,11.6-3,22.9-8.5,33.1
			l39.8,27.8c11.4-18.3,17.4-39.4,17.3-60.9C340.3,205.8,336,187.8,327.8,171.6L327.8,171.6z M275.6,267.6
			c-6.8,8-15.3,14.3-24.9,18.5l15.2,46.3c19.5-7.8,36.7-20.5,49.8-36.9L275.6,267.6L275.6,267.6z"/>
	</g>
</g>
</svg>
