<?xml version="1.0" encoding="utf-8"?>
<!-- Generator: Adobe Illustrator 24.0.0, SVG Export Plug-In . SVG Version: 6.00 Build 0)  -->
<svg version="1.1" id="Component_45_1" xmlns="http://www.w3.org/2000/svg" xmlns:xlink="http://www.w3.org/1999/xlink" x="0px"
	 y="0px" viewBox="0 0 48 48" enable-background="new 0 0 48 48" xml:space="preserve">
<g id="icon" transform="translate(34.498 31.518)">
	<path id="Rectangle_14" fill="#DB1E5E" d="M-16.6-30.7l23,6.2c4.6,1.2,7.3,6,6.1,10.6L6.2,9.6c-1.2,4.6-6,7.3-10.6,6.1l-23-6.2
		c-4.6-1.2-7.3-6-6.1-10.6l6.3-23.6C-25.9-29.2-21.2-31.9-16.6-30.7z"/>
	<path id="Path_175" fill="#FFFFFF" d="M-14.4-12.1c-1.1,0-1.9,0.9-1.9,1.9s0.9,1.9,1.9,1.9s1.9-0.9,1.9-1.9l0,0
		C-12.5-11.3-13.4-12.1-14.4-12.1C-14.4-12.1-14.4-12.1-14.4-12.1z M-14.4-9.2c-0.5,0-1-0.4-1-1c0-0.5,0.4-1,1-1c0.5,0,1,0.4,1,1
		C-13.5-9.7-13.9-9.2-14.4-9.2L-14.4-9.2z M-8.7-10.2h2.9v-1h-2.9L-8.7-10.2z M-7.8-15c-1,0-2.1,0.3-2.9,1c-0.8-0.7-1.8-1-2.9-1
		h-6.7v14.3h6.7c1,0,2.1,0.3,2.9,1c0.8-0.7,1.8-1,2.9-1h6.7V-15L-7.8-15z M-11.1-1.1c-0.8-0.3-1.6-0.5-2.4-0.5h-5.7v-3.1l1.9-1.9
		l6.2,5.3V-1.1z M-11.1-2.6l-2.3-2l2.3-1.7V-2.6z M-11.1-7.6l-3.1,2.3L-17.3-8l-1.9,1.9V-14h5.7c1.7,0,2.4,0.9,2.4,0.9V-7.6z
		 M-2-1.6h-5.7c-0.8,0-1.6,0.2-2.4,0.5v-12C-10-13.3-9.4-14-7.8-14H-2L-2-1.6z M-8.7-4.5h4.8v-1h-4.8V-4.5z M-8.7-7.3h4.8v-1h-4.8
		V-7.3z"/>
</g>
</svg>
