<svg xmlns="http://www.w3.org/2000/svg" width="18" height="16.936" viewBox="0 0 18 16.936">
  <path id="icone" d="M708.514,163.624a.486.486,0,0,0,.486-.486v-.417a.486.486,0,1,0-.973,0v.417A.487.487,0,0,0,708.514,163.624Zm3.378,0a.486.486,0,0,0,.486-.486v-.417a.486.486,0,1,0-.973,0v.417A.487.487,0,0,0,711.892,163.624Zm5.1-6H703.411a2.21,2.21,0,0,0-2.208,2.208v14.242a.487.487,0,0,0,.761.4l4.229-2.891H717a2.21,2.21,0,0,0,2.208-2.208v-9.545A2.21,2.21,0,0,0,717,157.623Zm1.235,11.753A1.236,1.236,0,0,1,717,170.61H706.043a.488.488,0,0,0-.275.085l-3.592,2.455v-13.32a1.236,1.236,0,0,1,1.235-1.235H717a1.236,1.236,0,0,1,1.235,1.235Zm-5.542-4.8h-4.969a.487.487,0,0,0-.481.559,2.967,2.967,0,0,0,5.931,0,.486.486,0,0,0-.481-.559Zm-2.485,2.471a2.072,2.072,0,0,1-1.863-1.5h3.727A2.073,2.073,0,0,1,710.2,167.046Z" transform="translate(-701.203 -157.623)" fill="#fff"/>
</svg>
