<?xml version="1.0" encoding="utf-8"?>
<!-- Generator: Adobe Illustrator 24.0.0, SVG Export Plug-In . SVG Version: 6.00 Build 0)  -->
<svg version="1.1" id="Component_45_1" xmlns="http://www.w3.org/2000/svg" xmlns:xlink="http://www.w3.org/1999/xlink" x="0px"
	 y="0px" viewBox="0 0 48 48" enable-background="new 0 0 48 48" xml:space="preserve">
<circle fill="none" stroke="#00D3B7" stroke-width="1.5" cx="24" cy="24" r="23.2"/>
<path id="Path_172" fill="#00D3B7" d="M35.8,19.2l-5-6.7c-0.1-0.2-0.4-0.4-0.6-0.3H12.9c-0.4,0-0.8,0.3-0.8,0.8c0,0,0,0,0,0v22.2
	c0,0.4,0.3,0.8,0.7,0.9c0,0,0,0,0,0h22.2c0.5,0,0.8-0.3,0.9-0.8c0,0,0-0.1,0-0.1V19.6C35.9,19.4,35.9,19.3,35.8,19.2z M18.9,14h8.9
	v5.4h-8.9V14z M34,34H14V14h3v6.4c0,0.4,0.3,0.8,0.8,0.9h11.1c0.4,0,0.8-0.4,0.8-0.9v-6.2l4.3,5.8L34,34z M24,23.9
	c-2.1,0-3.9,1.7-3.9,3.8c0,2.1,1.7,3.9,3.8,3.9c2.1,0,3.9-1.7,3.9-3.8C27.8,25.7,26.1,24,24,23.9z M24,29.7c-1.1,0.1-2-0.8-2.1-1.8
	s0.8-2,1.8-2.1c0.1,0,0.2,0,0.2,0c1.1-0.1,2,0.8,2.1,1.8c0.1,1.1-0.8,2-1.8,2.1C24.2,29.7,24.1,29.7,24,29.7z"/>
</svg>
