<svg id="Component_13_1" data-name="Component 13 – 1" xmlns="http://www.w3.org/2000/svg" width="857.042" height="677.759" viewBox="0 0 857.042 677.759">
  <g id="Component_11_1" data-name="Component 11 – 1">
    <path id="Path_184" data-name="Path 184" d="M.17,454.776C3.6,364.4,57.506,267.748,139.479,192.864c81.112-76.056,189.35-126.5,284.944-161.3,97.165-31.207,154.41-48,211.117-8.4,54.327,36.786,124.21,131.926,178.985,244.866,54.89,112.176,36.933,203.03-52.871,270.907-88.03,69.4-221.782,107.47-339.708,120.112-119.4,10.3-218.106,1.069-296.278-28.961C48.862,599.668-3.376,545.389.17,454.776Z" transform="matrix(-1, -0.017, 0.017, -1, 845.469, 677.759)" fill="rgba(255,255,255,0.8)" opacity="0.63"/>
  </g>
  <circle id="Ellipse_39" data-name="Ellipse 39" cx="24.5" cy="24.5" r="24.5" transform="translate(428.761 86.958)" fill="#bf357c"/>
  <ellipse id="Ellipse_40" data-name="Ellipse 40" cx="15" cy="15.5" rx="15" ry="15.5" transform="translate(342.761 71.958)" fill="#ff851a"/>
  <path id="Path_51" data-name="Path 51" d="M49,24.5a24.5,24.5,0,0,1-49,0C0,10.969,49,10.969,49,24.5Z" transform="translate(493.544 544.765) rotate(180)" fill="#00d3b7"/>
  <circle id="Ellipse_41" data-name="Ellipse 41" cx="15.5" cy="15.5" r="15.5" transform="translate(622.113 283.958)" fill="#ff2c4e"/>
</svg>
