<svg id="Component_45_24" data-name="Component 45 – 24" xmlns="http://www.w3.org/2000/svg" width="1202" height="525.648" viewBox="0 0 1202 525.648">
  <g id="BG_dots" data-name="BG dots">
    <path id="Path_50" data-name="Path 50" d="M49,24.5a24.5,24.5,0,0,1-49,0C0,10.969,49,10.969,49,24.5Z" transform="translate(1112 -14.352)" fill="#a44786"/>
    <path id="Path_52" data-name="Path 52" d="M49,24.5a24.5,24.5,0,0,1-49,0C0,10.969,49,10.969,49,24.5Z" transform="translate(0 201.648)" fill="#a44786"/>
    <path id="Path_51" data-name="Path 51" d="M49,24.5a24.5,24.5,0,0,1-49,0C0,10.969,49,10.969,49,24.5Z" transform="translate(362 264.648)"/>
    <ellipse id="Ellipse_14" data-name="Ellipse 14" cx="15" cy="15.5" rx="15" ry="15.5" transform="translate(790 215.648)" fill="#ffb100"/>
    <ellipse id="Ellipse_18" data-name="Ellipse 18" cx="15" cy="15.5" rx="15" ry="15.5" transform="translate(97 24.648)" fill="#00d3b7"/>
    <ellipse id="Ellipse_17" data-name="Ellipse 17" cx="15" cy="15.5" rx="15" ry="15.5" transform="translate(40 494.648)" fill="#ff851a"/>
    <circle id="Ellipse_15" data-name="Ellipse 15" cx="15.5" cy="15.5" r="15.5" transform="translate(1171 263.648)" fill="#ac4071"/>
    <circle id="Ellipse_16" data-name="Ellipse 16" cx="15.5" cy="15.5" r="15.5" transform="translate(693 464.648)" fill="#82cabb"/>
  </g>
  <g id="Group_80" data-name="Group 80" transform="translate(490.973 173.901)">
    <path id="Path_119" data-name="Path 119" d="M1629.115,738.623l-29.226-23.875,16.6-25.95a5.556,5.556,0,0,0,.846-4.307,6.444,6.444,0,0,0-2.491-3.547,4.932,4.932,0,0,0-4.392-.984,7.026,7.026,0,0,0-4.31,3.465l-24.171,39.023-6.566-27.035a6.226,6.226,0,0,0-2.688-3.922,5.956,5.956,0,0,0-4.841-.665,6.468,6.468,0,0,0-4.145,2.847,5.955,5.955,0,0,0-.738,4.754l13.94,57.393a6.037,6.037,0,0,0,7.628,4.561,6.252,6.252,0,0,0,4.146-2.846,6.13,6.13,0,0,0,.638-4.73l-3.8-15.632,7.215-11.28,28.478,23.16a5.452,5.452,0,0,0,5.025,1.2,7.332,7.332,0,0,0,4.245-2.872,5.767,5.767,0,0,0,.987-5.025A6.933,6.933,0,0,0,1629.115,738.623Zm23.37-64.32a6.144,6.144,0,0,0-4.348-1.776,6.474,6.474,0,0,0-4.7,1.8,5.958,5.958,0,0,0-1.826,4.451l.177,59.063a6.034,6.034,0,0,0,6.354,6.213,6.427,6.427,0,0,0,4.491-1.8,5.8,5.8,0,0,0,1.928-4.45l-.177-59.063A5.876,5.876,0,0,0,1652.484,674.3Zm157.64,32.114a28.687,28.687,0,0,0-5.991-8.672,36.92,36.92,0,0,0-10.107-7.309,32.882,32.882,0,0,0-12.605-3.589,21.435,21.435,0,0,0-11.474,2.24,18.731,18.731,0,0,0-8.152,8.6,20.843,20.843,0,0,0-2.277,7.719,16.921,16.921,0,0,0,1.035,7.38,22.527,22.527,0,0,0,4.328,6.977,42.79,42.79,0,0,0,7.55,6.6,43.3,43.3,0,0,1,7.549,6.367,13.954,13.954,0,0,1,3.392,5.765,7.727,7.727,0,0,1-.695,5.48,6.348,6.348,0,0,1-3.779,3.192,13.572,13.572,0,0,1-5.986.536,19.849,19.849,0,0,1-6.735-2.07,24.065,24.065,0,0,1-7.711-5.705,32.3,32.3,0,0,1-4.738-7.755,5.42,5.42,0,0,0-2.554-2.655,5.59,5.59,0,0,0-4.593-.307,5.858,5.858,0,0,0-3.364,2.942,6.33,6.33,0,0,0-.645,2.878,8.061,8.061,0,0,0,.678,3.2,30.815,30.815,0,0,0,6.948,10.523,43.12,43.12,0,0,0,10.7,7.38,32.564,32.564,0,0,0,12.7,3.521,23.55,23.55,0,0,0,11.931-2.238,18.268,18.268,0,0,0,8.425-8.573,22.693,22.693,0,0,0,2.6-8.588,14.88,14.88,0,0,0-1.4-7.451,25.205,25.205,0,0,0-5.125-6.98,82.2,82.2,0,0,0-8.439-7.214,59.446,59.446,0,0,1-6.274-5.5,12.138,12.138,0,0,1-3.188-5.148,7.286,7.286,0,0,1,.673-5.322,7.053,7.053,0,0,1,3.389-3.33,10.132,10.132,0,0,1,5.441-.7,21.309,21.309,0,0,1,7.123,2.321,21.063,21.063,0,0,1,4.724,3.344,39.288,39.288,0,0,1,4.239,4.535,18.385,18.385,0,0,1,2.712,4.391,4.476,4.476,0,0,0,2.052,2.059,5.438,5.438,0,0,0,4.478.192,5.829,5.829,0,0,0,3.388-2.871A6.824,6.824,0,0,0,1810.124,706.417Zm-76.726-10.7a27.33,27.33,0,0,0-7.926-9.485,29.77,29.77,0,0,0-12.267-5.308l-23.933-4.864a6.11,6.11,0,0,0-7.35,4.866L1670.157,738.8a6.11,6.11,0,0,0,4.867,7.351l23.933,4.864q9.711,1.973,17.328-1.38a30.486,30.486,0,0,0,12.738-10.6,44.292,44.292,0,0,0,7.1-16.962,47,47,0,0,0,.806-13.965A34.541,34.541,0,0,0,1733.4,695.717ZM1723.1,719.43a36.184,36.184,0,0,1-4.224,11.29,19.049,19.049,0,0,1-7.609,7.421A16.163,16.163,0,0,1,1700.3,739.3l-16.523-3.357,9.566-47.065,16.522,3.357a16.047,16.047,0,0,1,12.283,9.849,23.7,23.7,0,0,1,1.728,8.172A37.965,37.965,0,0,1,1723.1,719.43Z" transform="translate(-1553.416 -663.158)" fill="#fff"/>
    <path id="Path_120" data-name="Path 120" d="M1649.527,673.9a6.145,6.145,0,0,1,4.329,1.776,5.876,5.876,0,0,1,1.9,4.439l.177,59.063a5.8,5.8,0,0,1-1.928,4.45,6.427,6.427,0,0,1-4.491,1.8h-.028a6.032,6.032,0,0,1-6.326-6.213l-.177-59.063a5.958,5.958,0,0,1,1.826-4.451,6.475,6.475,0,0,1,4.7-1.8h.019m39.722,3.385a6.977,6.977,0,0,1,1.394.146l23.933,4.864a29.77,29.77,0,0,1,12.267,5.308,27.332,27.332,0,0,1,7.926,9.485,34.544,34.544,0,0,1,3.529,12.395,47,47,0,0,1-.806,13.965,44.291,44.291,0,0,1-7.1,16.962,30.486,30.486,0,0,1-12.738,10.6,25.551,25.551,0,0,1-10.417,2.111,34.715,34.715,0,0,1-6.911-.731l-23.933-4.865a6.108,6.108,0,0,1-4.867-7.35l11.765-57.879a6.031,6.031,0,0,1,2.638-4,5.9,5.9,0,0,1,3.318-1.013m16.569,63.828a14.508,14.508,0,0,0,6.824-1.6,19.05,19.05,0,0,0,7.609-7.421,36.18,36.18,0,0,0,4.224-11.29,37.959,37.959,0,0,0,.77-9.175,23.712,23.712,0,0,0-1.728-8.173,16.043,16.043,0,0,0-12.283-9.848l-16.522-3.357-9.566,47.064,16.523,3.358a20.8,20.8,0,0,0,4.151.442m-92.737-59.937a5.009,5.009,0,0,1,3.131,1.141,6.443,6.443,0,0,1,2.491,3.547,5.556,5.556,0,0,1-.845,4.307l-16.6,25.95,29.226,23.875a6.933,6.933,0,0,1,2.379,3.734,5.767,5.767,0,0,1-.987,5.025,7.324,7.324,0,0,1-4.245,2.871,6.078,6.078,0,0,1-1.437.179,5.485,5.485,0,0,1-3.588-1.377l-28.478-23.16-7.215,11.28,3.8,15.632a6.129,6.129,0,0,1-.638,4.73,6.256,6.256,0,0,1-4.146,2.846,7.592,7.592,0,0,1-1.8.229,5.69,5.69,0,0,1-3.092-.881,6.13,6.13,0,0,1-2.738-3.909L1564.36,699.8a5.955,5.955,0,0,1,.738-4.754,6.469,6.469,0,0,1,4.145-2.847,7.594,7.594,0,0,1,1.781-.226,5.5,5.5,0,0,1,3.06.891,6.225,6.225,0,0,1,2.688,3.922l6.566,27.035L1607.51,684.8a7.026,7.026,0,0,1,4.311-3.465,5.279,5.279,0,0,1,1.261-.157m168,6.984q.843,0,1.709.059a32.881,32.881,0,0,1,12.605,3.589,36.9,36.9,0,0,1,10.107,7.309,28.688,28.688,0,0,1,5.991,8.672,6.824,6.824,0,0,1,.218,6.17,5.829,5.829,0,0,1-3.388,2.871,6.075,6.075,0,0,1-2.085.389,5.255,5.255,0,0,1-2.393-.581,4.476,4.476,0,0,1-2.052-2.059,18.385,18.385,0,0,0-2.712-4.391,39.289,39.289,0,0,0-4.239-4.535,21.065,21.065,0,0,0-4.724-3.344,21.309,21.309,0,0,0-7.123-2.321,14.152,14.152,0,0,0-1.541-.088,9.135,9.135,0,0,0-3.9.784,7.054,7.054,0,0,0-3.389,3.33,7.285,7.285,0,0,0-.673,5.322,12.136,12.136,0,0,0,3.188,5.148,59.582,59.582,0,0,0,6.273,5.5,82.2,82.2,0,0,1,8.439,7.214,25.2,25.2,0,0,1,5.125,6.98,14.88,14.88,0,0,1,1.4,7.451,22.681,22.681,0,0,1-2.6,8.587,18.266,18.266,0,0,1-8.425,8.574,23.154,23.154,0,0,1-10.236,2.291q-.838,0-1.695-.053a32.6,32.6,0,0,1-12.7-3.521,43.116,43.116,0,0,1-10.7-7.38,30.816,30.816,0,0,1-6.948-10.523,8.067,8.067,0,0,1-.678-3.2,6.341,6.341,0,0,1,.645-2.878,5.86,5.86,0,0,1,3.364-2.941,5.677,5.677,0,0,1,1.949-.355,5.85,5.85,0,0,1,2.644.661,5.427,5.427,0,0,1,2.554,2.657,32.3,32.3,0,0,0,4.738,7.755,24.067,24.067,0,0,0,7.711,5.705,19.848,19.848,0,0,0,6.735,2.07,17.062,17.062,0,0,0,1.892.109,12.451,12.451,0,0,0,4.095-.645,6.348,6.348,0,0,0,3.779-3.192,7.727,7.727,0,0,0,.695-5.48,13.953,13.953,0,0,0-3.392-5.765,43.3,43.3,0,0,0-7.549-6.367,42.786,42.786,0,0,1-7.55-6.6,22.523,22.523,0,0,1-4.328-6.978,16.92,16.92,0,0,1-1.035-7.381,20.846,20.846,0,0,1,2.277-7.718,18.733,18.733,0,0,1,8.152-8.6,21,21,0,0,1,9.765-2.3m-131.556-23.631h-.019a15.79,15.79,0,0,0-11.242,4.47,15.238,15.238,0,0,0-4.65,11.185l.151,50.392-20.118-16.435,12.1-18.922.054-.084.053-.087a14.745,14.745,0,0,0,1.95-11.4,15.8,15.8,0,0,0-5.846-8.73,14.377,14.377,0,0,0-8.881-3.112,14.752,14.752,0,0,0-3.476.422,16.188,16.188,0,0,0-10.076,7.659l-12.369,19.97-1.282-5.281a15.547,15.547,0,0,0-6.684-9.565,14.948,14.948,0,0,0-8.17-2.407,16.935,16.935,0,0,0-3.99.491,15.772,15.772,0,0,0-9.867,6.962,15.242,15.242,0,0,0-1.914,11.954l13.941,57.4a15.43,15.43,0,0,0,6.854,9.628,15.154,15.154,0,0,0,8.081,2.318,17.03,17.03,0,0,0,4.011-.492,15.4,15.4,0,0,0,11.676-18.9L1597.4,742l19.255,15.66a14.824,14.824,0,0,0,9.542,3.513,15.479,15.479,0,0,0,3.645-.443,16.724,16.724,0,0,0,9.56-6.391,16,16,0,0,0,1.3-2.074,15.722,15.722,0,0,0,8.786,2.532h.082a15.75,15.75,0,0,0,10.805-4.3,15.516,15.516,0,0,0,2.7-3.3,15.79,15.79,0,0,0,1.5,2.861,15.328,15.328,0,0,0,9.942,6.644l23.934,4.864a44.222,44.222,0,0,0,8.778.92,34.985,34.985,0,0,0,14.194-2.9,39.7,39.7,0,0,0,16.087-13.038,38.855,38.855,0,0,0,7.538,10.31,52.642,52.642,0,0,0,13.005,9.014,42.056,42.056,0,0,0,16.321,4.5c.765.048,1.53.071,2.279.071a32.548,32.548,0,0,0,14.325-3.23,27.5,27.5,0,0,0,12.709-12.8,32.028,32.028,0,0,0,3.577-12.179A24.225,24.225,0,0,0,1805,730.174a30.012,30.012,0,0,0-2.309-4.023,14.475,14.475,0,0,0,3.552.438,15.465,15.465,0,0,0,5.28-.95,15.142,15.142,0,0,0,8.564-7.469,16.165,16.165,0,0,0-.01-14.155,38.229,38.229,0,0,0-7.824-11.4,46.4,46.4,0,0,0-12.646-9.177,42.348,42.348,0,0,0-16.18-4.566c-.785-.053-1.572-.08-2.34-.08a30.363,30.363,0,0,0-14.058,3.339,27.976,27.976,0,0,0-12.232,12.719,30.257,30.257,0,0,0-3.246,11.18,26.322,26.322,0,0,0,1.6,11.406,28.859,28.859,0,0,0,2.1,4.411,14.809,14.809,0,0,0-7.856-.776,55.138,55.138,0,0,0,.239-12.492,44.038,44.038,0,0,0-4.5-15.734,36.747,36.747,0,0,0-10.613-12.7,39.172,39.172,0,0,0-16.068-7.029l-23.933-4.864a16.356,16.356,0,0,0-3.26-.334,15.476,15.476,0,0,0-15.139,12.515l-8.849,43.54-.131-43.883a15.144,15.144,0,0,0-4.85-11.234,15.476,15.476,0,0,0-10.752-4.323ZM1696.194,730l5.834-28.7,7.339,1.491a7.68,7.68,0,0,1,3.482,1.477,7.315,7.315,0,0,1,2.018,2.795,14.516,14.516,0,0,1,1.014,4.957,28.753,28.753,0,0,1-.59,6.918,27.037,27.037,0,0,1-3.109,8.391,9.788,9.788,0,0,1-3.88,3.882,5.26,5.26,0,0,1-2.484.534,11.666,11.666,0,0,1-2.284-.253L1696.194,730Zm77.152,9.3a12.772,12.772,0,0,1-1.593-.675,14.883,14.883,0,0,1-4.757-3.377,18.621,18.621,0,0,1-1.466-2q1.378,1.089,2.88,2.147l.029.021.029.02a40.723,40.723,0,0,1,4.876,3.866Z" transform="translate(-1554.788 -664.528)"/>
  </g>
  <g id="Group_81" data-name="Group 81" transform="translate(465 149.546)">
    <path id="Path_121" data-name="Path 121" d="M1557.871,685.636a1.913,1.913,0,0,0-1.4.395l-6.577,4.871-9.743-13.156a1.8,1.8,0,0,0-1.278-.751,1.892,1.892,0,0,0-1.4.351,1.983,1.983,0,0,0-.833,1.3,1.825,1.825,0,0,0,.358,1.431l10.788,14.569a1.875,1.875,0,0,0,2.675.4l8.192-6.066a1.91,1.91,0,0,0,.788-1.228,1.713,1.713,0,0,0-.334-1.373A1.746,1.746,0,0,0,1557.871,685.636ZM1610.63,667.7a1.527,1.527,0,0,0-1.213-.241,2.389,2.389,0,0,0-.993.483q-.3.251-.665.594a4.164,4.164,0,0,1-1.005.659,7.294,7.294,0,0,1-1.781.541,4.819,4.819,0,0,1-5.431-2.961l10.149-1.99a2,2,0,0,0,1.2-.714,1.619,1.619,0,0,0,.35-1.317,8.078,8.078,0,0,0-1.247-3.015,8.775,8.775,0,0,0-2.217-2.265,8.3,8.3,0,0,0-2.825-1.284,7.133,7.133,0,0,0-3.1-.064,7.743,7.743,0,0,0-3.64,1.8,8.1,8.1,0,0,0-2.351,3.577,9.5,9.5,0,0,0-.2,4.945,8.841,8.841,0,0,0,1.865,4.044,7.67,7.67,0,0,0,3.536,2.391,9.214,9.214,0,0,0,4.754.2,9.119,9.119,0,0,0,2.885-1.094,7.233,7.233,0,0,0,2.015-1.626,1.956,1.956,0,0,0,.566-1.676A1.534,1.534,0,0,0,1610.63,667.7Zm-11.623-4.752a4.117,4.117,0,0,1,.616-1.751,3.376,3.376,0,0,1,1.222-1.1,5.89,5.89,0,0,1,1.675-.583,4.1,4.1,0,0,1,1.882.062,4.2,4.2,0,0,1,1.636.846,2.864,2.864,0,0,1,.944,1.476l.043.217-8.041,1.577A6.055,6.055,0,0,1,1599.007,662.946Zm-28.782,3.736a1.87,1.87,0,0,0-1.049-1.042,1.836,1.836,0,0,0-1.449.062,1.8,1.8,0,0,0-1.009,1.051,1.889,1.889,0,0,0,.07,1.464l.021.048a7.515,7.515,0,0,0-.772-.23,7.412,7.412,0,0,0-2.211-.146,7.275,7.275,0,0,0-2.429.636,6.912,6.912,0,0,0-3.041,2.576,7.936,7.936,0,0,0-1.255,3.925,10.521,10.521,0,0,0,3.68,8.25,7.824,7.824,0,0,0,3.786,1.676,7.174,7.174,0,0,0,4.034-.581,6.11,6.11,0,0,0,1.86-1.258,7.331,7.331,0,0,0,1.229-1.6,6.375,6.375,0,0,0,.507-1.176,1.88,1.88,0,0,0,1.037,1.019,1.93,1.93,0,0,0,2.463-1.1,1.88,1.88,0,0,0-.069-1.463Zm-.675,12.732a4.246,4.246,0,0,1-1.925,1.614,4.2,4.2,0,0,1-2.457.341,4.651,4.651,0,0,1-2.242-1.06,6.491,6.491,0,0,1-2.184-4.9,4.654,4.654,0,0,1,.708-2.377,4.191,4.191,0,0,1,1.9-1.6,4.245,4.245,0,0,1,2.485-.355,4.664,4.664,0,0,1,2.242,1.061,6.489,6.489,0,0,1,2.185,4.9A4.667,4.667,0,0,1,1569.55,679.414Zm50.036-10.83-2.709-19.192a1.916,1.916,0,0,0-.7-1.279,1.749,1.749,0,0,0-1.4-.356,1.873,1.873,0,0,0-1.627,2.161l2.708,19.192a1.881,1.881,0,0,0,.718,1.276,1.769,1.769,0,0,0,1.382.361,1.877,1.877,0,0,0,1.627-2.162Zm-28.71-5.894a7.9,7.9,0,0,0-3.509-2.158,7.153,7.153,0,0,0-4.089.039,5.8,5.8,0,0,0-1.9.948,6.784,6.784,0,0,0-1.4,1.408,6.441,6.441,0,0,0-.757,1.321l-1.854-6.325a1.88,1.88,0,0,0-.895-1.158,1.931,1.931,0,0,0-2.589.759,1.875,1.875,0,0,0-.128,1.459l5.54,18.9a1.861,1.861,0,0,0,.9,1.174,1.825,1.825,0,0,0,1.444.134,1.8,1.8,0,0,0,1.14-.907,1.88,1.88,0,0,0,.128-1.459l-.055-.189a7.04,7.04,0,0,0,.925.424,7.515,7.515,0,0,0,2.141.451,6.7,6.7,0,0,0,2.372-.271,6.893,6.893,0,0,0,3.375-2.148,7.973,7.973,0,0,0,1.753-3.718,9.693,9.693,0,0,0-.3-4.635A9.584,9.584,0,0,0,1590.876,662.69Zm-1.016,7.8a4.676,4.676,0,0,1-1,2.27,4.187,4.187,0,0,1-2.108,1.338,4.255,4.255,0,0,1-2.512.018,4.633,4.633,0,0,1-2.083-1.367,6.1,6.1,0,0,1-1.312-2.411,5.975,5.975,0,0,1-.2-2.736,4.678,4.678,0,0,1,1.025-2.245,4.245,4.245,0,0,1,2.124-1.34,4.163,4.163,0,0,1,2.5-.013,4.724,4.724,0,0,1,2.059,1.34,5.97,5.97,0,0,1,1.312,2.411A6.1,6.1,0,0,1,1589.861,670.489Z" transform="translate(-1531.928 -643.05)" fill="#fff"/>
    <path id="Path_122" data-name="Path 122" d="M1615.77,648.42a1.7,1.7,0,0,1,1.089.378,1.915,1.915,0,0,1,.7,1.279l2.709,19.192a1.877,1.877,0,0,1-1.627,2.162,2.194,2.194,0,0,1-.287.02,1.742,1.742,0,0,1-1.1-.381,1.881,1.881,0,0,1-.718-1.276l-2.708-19.192a1.873,1.873,0,0,1,1.627-2.161,2.129,2.129,0,0,1,.307-.022m-11.814,8.248a7.069,7.069,0,0,1,1.682.2,8.3,8.3,0,0,1,2.825,1.284,8.776,8.776,0,0,1,2.217,2.265,8.078,8.078,0,0,1,1.247,3.015,1.615,1.615,0,0,1-.35,1.315,2,2,0,0,1-1.2.716l-10.149,1.99a4.818,4.818,0,0,0,2.99,2.817,4.819,4.819,0,0,0,2.441.144,7.294,7.294,0,0,0,1.781-.541,4.162,4.162,0,0,0,1.005-.659q.364-.343.665-.594a2.39,2.39,0,0,1,.993-.483,1.753,1.753,0,0,1,.344-.035,1.49,1.49,0,0,1,.869.276,1.534,1.534,0,0,1,.657.99,1.956,1.956,0,0,1-.566,1.676,7.232,7.232,0,0,1-2.015,1.626,9.119,9.119,0,0,1-2.885,1.094,10.916,10.916,0,0,1-2.1.214,8.3,8.3,0,0,1-2.652-.417,7.67,7.67,0,0,1-3.536-2.391,8.841,8.841,0,0,1-1.865-4.044,9.5,9.5,0,0,1,.2-4.945,8.1,8.1,0,0,1,2.351-3.577,7.733,7.733,0,0,1,3.64-1.8,7.379,7.379,0,0,1,1.415-.14m-4.286,7.7,8.041-1.577-.043-.217a2.864,2.864,0,0,0-.944-1.476,4.2,4.2,0,0,0-1.636-.846,4.108,4.108,0,0,0-1.068-.143,4.2,4.2,0,0,0-.814.081,5.888,5.888,0,0,0-1.675.583,3.376,3.376,0,0,0-1.222,1.1,4.117,4.117,0,0,0-.616,1.751,6.056,6.056,0,0,0-.022.74m-23.385-7.156a1.757,1.757,0,0,1,.875.234,1.88,1.88,0,0,1,.895,1.158l1.854,6.325a6.442,6.442,0,0,1,.757-1.321,6.784,6.784,0,0,1,1.4-1.408,5.8,5.8,0,0,1,1.9-.948,7.6,7.6,0,0,1,2.141-.318,6.93,6.93,0,0,1,1.948.28,7.9,7.9,0,0,1,3.509,2.157,9.577,9.577,0,0,1,2.248,4.048,9.693,9.693,0,0,1,.3,4.635,7.973,7.973,0,0,1-1.753,3.718,6.893,6.893,0,0,1-3.375,2.148,6.82,6.82,0,0,1-1.929.286c-.147,0-.295,0-.443-.015a7.513,7.513,0,0,1-2.141-.451,7.048,7.048,0,0,1-.925-.424l.055.188a1.88,1.88,0,0,1-.128,1.459,1.8,1.8,0,0,1-1.14.907,2.12,2.12,0,0,1-.589.089,1.748,1.748,0,0,1-.855-.223,1.861,1.861,0,0,1-.9-1.174l-5.54-18.9a1.875,1.875,0,0,1,.128-1.459,1.8,1.8,0,0,1,1.14-.906,2.047,2.047,0,0,1,.574-.087m9.833,17.764a4.682,4.682,0,0,0,1.319-.2,4.187,4.187,0,0,0,2.108-1.338,4.676,4.676,0,0,0,1-2.27,6.1,6.1,0,0,0-.2-2.736,5.971,5.971,0,0,0-1.312-2.411,4.725,4.725,0,0,0-2.059-1.34,3.9,3.9,0,0,0-1.191-.185,4.592,4.592,0,0,0-1.3.2,4.245,4.245,0,0,0-2.124,1.34,4.678,4.678,0,0,0-1.025,2.245,5.976,5.976,0,0,0,.2,2.736,6.1,6.1,0,0,0,1.312,2.411,4.633,4.633,0,0,0,2.083,1.367,3.985,3.985,0,0,0,1.193.18m-16.9-8.775a1.777,1.777,0,0,1,.64.121,1.87,1.87,0,0,1,1.049,1.042l5.4,12.116a1.88,1.88,0,0,1,.069,1.463,1.8,1.8,0,0,1-1.007,1.051,1.942,1.942,0,0,1-.793.179,1.762,1.762,0,0,1-.663-.131,1.879,1.879,0,0,1-1.037-1.019,6.373,6.373,0,0,1-.507,1.176,7.331,7.331,0,0,1-1.229,1.6,6.109,6.109,0,0,1-1.86,1.258,7.273,7.273,0,0,1-2.989.657,7.162,7.162,0,0,1-1.045-.076,7.824,7.824,0,0,1-3.786-1.676,10.521,10.521,0,0,1-3.68-8.25,7.935,7.935,0,0,1,1.255-3.925,6.912,6.912,0,0,1,3.041-2.576,7.275,7.275,0,0,1,2.429-.636q.325-.023.637-.023a7,7,0,0,1,1.574.17,7.428,7.428,0,0,1,.772.23l-.021-.049a1.886,1.886,0,0,1-.07-1.463,1.8,1.8,0,0,1,1.009-1.051,1.981,1.981,0,0,1,.809-.183m-2.693,15.907a4.354,4.354,0,0,0,1.783-.4,4.245,4.245,0,0,0,1.925-1.614,4.655,4.655,0,0,0,.709-2.375,6.489,6.489,0,0,0-2.185-4.9,4.665,4.665,0,0,0-2.242-1.061,3.95,3.95,0,0,0-.664-.056,4.434,4.434,0,0,0-1.821.411,4.191,4.191,0,0,0-1.9,1.6,4.654,4.654,0,0,0-.708,2.377,6.092,6.092,0,0,0,.569,2.7,6.024,6.024,0,0,0,1.615,2.2,4.652,4.652,0,0,0,2.242,1.06,3.982,3.982,0,0,0,.675.057m-27.246-4.449a2.171,2.171,0,0,1,.272.018,1.8,1.8,0,0,1,1.278.751l9.743,13.156,6.577-4.871a1.943,1.943,0,0,1,1.174-.409,1.912,1.912,0,0,1,.231.014,1.746,1.746,0,0,1,1.235.744,1.713,1.713,0,0,1,.334,1.373,1.91,1.91,0,0,1-.788,1.228l-8.192,6.066a1.845,1.845,0,0,1-1.423.37,1.847,1.847,0,0,1-1.252-.77l-10.788-14.569a1.825,1.825,0,0,1-.358-1.431,1.983,1.983,0,0,1,.833-1.3,1.847,1.847,0,0,1,1.127-.369m76.487-33.928a6.917,6.917,0,0,0-.968.068,6.558,6.558,0,0,0-5.606,7.455l.292,2.067a12.936,12.936,0,0,0-2.74-1,11.793,11.793,0,0,0-2.792-.337h0a12,12,0,0,0-2.313.227,12.587,12.587,0,0,0-8.58,6.3,12.3,12.3,0,0,0-3.7-1.79,11.628,11.628,0,0,0-3.26-.467,12.288,12.288,0,0,0-3.46.508c-.082.023-.163.048-.244.074a6.572,6.572,0,0,0-2.937-3.465,6.481,6.481,0,0,0-3.178-.84,6.721,6.721,0,0,0-1.9.278,6.5,6.5,0,0,0-3.96,3.213,6.6,6.6,0,0,0-.481,4.963l.176.6a6.435,6.435,0,0,0-.9-.063,6.75,6.75,0,0,0-5.11,2.387,11.935,11.935,0,0,0-3.937,1.025,11.567,11.567,0,0,0-5.056,4.294,12.59,12.59,0,0,0-2.008,6.2,14.368,14.368,0,0,0,1.314,6.746c.083.187.17.372.259.554-.108.071-.214.146-.32.224l-2.811,2.083-6.955-9.39a6.5,6.5,0,0,0-4.479-2.614,7.078,7.078,0,0,0-.835-.052,6.531,6.531,0,0,0-3.915,1.29,6.691,6.691,0,0,0-2.668,4.309,6.53,6.53,0,0,0,1.215,4.973l10.789,14.57a6.555,6.555,0,0,0,9.23,1.376l8.191-6.065a6.6,6.6,0,0,0,2.355-3.174l.1.015a11.827,11.827,0,0,0,6.619-.938,10.8,10.8,0,0,0,3.266-2.225c.082-.082.162-.164.241-.248a6.724,6.724,0,0,0,5.08-2.515,6.372,6.372,0,0,0,1.956.3,6.773,6.773,0,0,0,1.909-.279,6.614,6.614,0,0,0,2.652-1.5q.374.026.75.026a11.854,11.854,0,0,0,8.862-4.071,12.293,12.293,0,0,0,1.492-2.18,12.681,12.681,0,0,0,2.863,1.365,13.005,13.005,0,0,0,4.138.66,15.654,15.654,0,0,0,3-.3,13.824,13.824,0,0,0,4.361-1.654,12.824,12.824,0,0,0,2.6-1.957l.027.02a6.413,6.413,0,0,0,3.964,1.362,6.968,6.968,0,0,0,.932-.064,6.56,6.56,0,0,0,5.62-7.458l-2.708-19.192a6.554,6.554,0,0,0-2.414-4.281,6.368,6.368,0,0,0-4.017-1.407Z" transform="translate(-1532.613 -643.735)"/>
  </g>
  <g id="Group_82" data-name="Group 82" transform="translate(557.808 133.648)">
    <path id="Path_123" data-name="Path 123" d="M1643.535,641.143a3.134,3.134,0,0,0-2.346-.827,3.091,3.091,0,0,0-2.276,1.027,3.23,3.23,0,0,0-.826,2.374l0,.078a13,13,0,0,0-1.081-.847,12.75,12.75,0,0,0-3.426-1.647,12.462,12.462,0,0,0-4.274-.539,11.857,11.857,0,0,0-6.485,2.155,13.579,13.579,0,0,0-4.5,5.445,18.028,18.028,0,0,0,.582,15.482,13.423,13.423,0,0,0,4.956,5.088,12.3,12.3,0,0,0,6.791,1.656,10.479,10.479,0,0,0,3.765-.815,12.527,12.527,0,0,0,2.976-1.753,11.3,11.3,0,0,0,1.563-1.512,3.216,3.216,0,0,0,.995,2.25,3.315,3.315,0,0,0,4.623-.174,3.218,3.218,0,0,0,.826-2.372l-.856-22.74A3.2,3.2,0,0,0,1643.535,641.143Zm-5.562,18.835a7.977,7.977,0,0,1-2.646,3.33,7.283,7.283,0,0,1-4.1,1.339,7.183,7.183,0,0,1-4.129-1.028,7.99,7.99,0,0,1-2.891-3.122,10.3,10.3,0,0,1-1.167-4.531,10.436,10.436,0,0,1,.821-4.662,8,8,0,0,1,2.647-3.33,7.209,7.209,0,0,1,4.04-1.335,7.3,7.3,0,0,1,4.185,1.026,8,8,0,0,1,2.89,3.121,10.439,10.439,0,0,1,1.168,4.586A10.292,10.292,0,0,1,1637.973,659.977Zm97.886-3.872a3.312,3.312,0,0,0-4.428-1.341,3.225,3.225,0,0,0-1.553,1.975l-3.96,13.078a7.022,7.022,0,0,1-2.8,4.238,5.692,5.692,0,0,1-4.682.24,5.61,5.61,0,0,1-3.711-2.781,7.016,7.016,0,0,1,.021-5.081l3.96-13.078a3.228,3.228,0,0,0-.2-2.5,3.315,3.315,0,0,0-4.428-1.341,3.224,3.224,0,0,0-1.553,1.975l-3.96,13.078q-1.653,5.459.392,9.563t7.761,5.834q5.714,1.729,9.719-.542t5.656-7.729l3.96-13.079A3.225,3.225,0,0,0,1735.858,656.1Zm-69.349-13.869-3.815-.193.173-3.438a3.286,3.286,0,0,0-.768-2.382,3.007,3.007,0,0,0-2.236-1.054,3.216,3.216,0,0,0-3.442,3.111l-.173,3.439-2.471-.125a2.972,2.972,0,0,0-2.192.725,2.772,2.772,0,0,0-.964,2.025,2.942,2.942,0,0,0,2.857,3.16l2.471.124-.747,14.829a8.834,8.834,0,0,0,.6,4.178,5.587,5.587,0,0,0,1.9,2.331,6.755,6.755,0,0,0,2.532,1.044,18.728,18.728,0,0,0,2.489.314,6.81,6.81,0,0,0,3.568-.789,2.9,2.9,0,0,0,1.243-4.354,1.813,1.813,0,0,0-1.335-.767,2.952,2.952,0,0,0-1.247.179,2.979,2.979,0,0,1-2.285-.089,1.683,1.683,0,0,1-.77-.739,2.337,2.337,0,0,1-.234-1.251l.735-14.559,3.814.192a2.968,2.968,0,0,0,2.192-.724,2.77,2.77,0,0,0,.964-2.025,2.942,2.942,0,0,0-2.857-3.16Zm30.911,4.46a15.275,15.275,0,0,0-14.638-2.146A14.307,14.307,0,0,0,1676.8,649a16.376,16.376,0,0,0-2.256,15.383,14.081,14.081,0,0,0,4.456,5.954,15.47,15.47,0,0,0,14.636,2.147,14.1,14.1,0,0,0,5.977-4.424,16.375,16.375,0,0,0,2.256-15.383A14.317,14.317,0,0,0,1697.42,646.7Zm-1.121,13.02a9.666,9.666,0,0,1-1.775,4.5,8.223,8.223,0,0,1-3.384,2.685A8.064,8.064,0,0,1,1683,665.7a8.215,8.215,0,0,1-2.47-3.543,9.656,9.656,0,0,1-.408-4.818,9.761,9.761,0,0,1,1.782-4.549,8.19,8.19,0,0,1,3.384-2.685,8.06,8.06,0,0,1,8.144,1.194,8.22,8.22,0,0,1,2.47,3.543A9.79,9.79,0,0,1,1696.3,659.716Z" transform="translate(-1610.991 -629.305)" fill="#fff"/>
    <path id="Path_124" data-name="Path 124" d="M1660.518,636.019c.066,0,.134,0,.2.006a3.007,3.007,0,0,1,2.236,1.054,3.286,3.286,0,0,1,.768,2.382l-.173,3.438,3.815.193a2.942,2.942,0,0,1,2.857,3.16,2.772,2.772,0,0,1-.964,2.025,2.929,2.929,0,0,1-2,.729c-.064,0-.13,0-.2,0l-3.814-.192-.735,14.559a2.337,2.337,0,0,0,.234,1.251,1.683,1.683,0,0,0,.77.739,2.819,2.819,0,0,0,1.092.271c.056,0,.112,0,.167,0a2.8,2.8,0,0,0,1.026-.186,2.826,2.826,0,0,1,1.051-.185c.064,0,.13,0,.2.006a1.813,1.813,0,0,1,1.335.767,2.9,2.9,0,0,1-1.243,4.354,6.818,6.818,0,0,1-3.207.8c-.12,0-.24,0-.361-.009a18.728,18.728,0,0,1-2.489-.314,6.755,6.755,0,0,1-2.532-1.044,5.587,5.587,0,0,1-1.9-2.331,8.834,8.834,0,0,1-.6-4.178l.747-14.829-2.471-.124a2.942,2.942,0,0,1-2.857-3.16,2.77,2.77,0,0,1,.964-2.025,2.93,2.93,0,0,1,2-.73c.064,0,.129,0,.194,0l2.471.125.173-3.439a3.212,3.212,0,0,1,3.241-3.117M1642.2,641.17a3.1,3.1,0,0,1,2.188.829,3.2,3.2,0,0,1,1,2.331l.856,22.74a3.218,3.218,0,0,1-.826,2.372,3.079,3.079,0,0,1-2.276,1.027c-.052,0-.1,0-.154,0a3.054,3.054,0,0,1-2.194-.856,3.21,3.21,0,0,1-.995-2.249,11.3,11.3,0,0,1-1.562,1.512,12.527,12.527,0,0,1-2.976,1.753,10.479,10.479,0,0,1-3.765.815c-.178.007-.354.009-.529.009a12.211,12.211,0,0,1-6.262-1.666,13.423,13.423,0,0,1-4.956-5.088,18.028,18.028,0,0,1-.582-15.482,13.579,13.579,0,0,1,4.5-5.445,11.848,11.848,0,0,1,6.485-2.155c.189-.007.375-.01.56-.01a12.189,12.189,0,0,1,3.714.549,12.715,12.715,0,0,1,3.426,1.647,13.248,13.248,0,0,1,1.081.846l0-.077a3.23,3.23,0,0,1,.826-2.374,3.091,3.091,0,0,1,2.276-1.027l.158,0m-10.45,24.339c.111,0,.223,0,.334-.006a7.283,7.283,0,0,0,4.1-1.339,7.977,7.977,0,0,0,2.646-3.33,10.292,10.292,0,0,0,.822-4.606,10.439,10.439,0,0,0-1.168-4.586,8,8,0,0,0-2.89-3.121,7.2,7.2,0,0,0-3.838-1.033c-.115,0-.23,0-.347.007a7.209,7.209,0,0,0-4.04,1.335,8,8,0,0,0-2.647,3.33,10.436,10.436,0,0,0-.821,4.662,10.3,10.3,0,0,0,1.167,4.531,7.99,7.99,0,0,0,2.891,3.122,7.1,7.1,0,0,0,3.795,1.034m57.13-21.1a16.183,16.183,0,0,1,2.351.176,14.545,14.545,0,0,1,7.042,2.963,14.317,14.317,0,0,1,4.451,5.981,16.375,16.375,0,0,1-2.256,15.383,14.171,14.171,0,0,1-11.183,5.392,16.314,16.314,0,0,1-2.385-.178,14.682,14.682,0,0,1-7.045-2.936,14.081,14.081,0,0,1-4.456-5.954,16.376,16.376,0,0,1,2.256-15.383,14.307,14.307,0,0,1,5.981-4.45,14.081,14.081,0,0,1,5.245-.993m.1,23.953a7.641,7.641,0,0,0,3.009-.611,8.223,8.223,0,0,0,3.384-2.685,9.666,9.666,0,0,0,1.775-4.5,9.79,9.79,0,0,0-.4-4.87,8.22,8.22,0,0,0-2.47-3.543,7.764,7.764,0,0,0-3.909-1.715,8.472,8.472,0,0,0-1.229-.091,7.605,7.605,0,0,0-3.007.613,8.19,8.19,0,0,0-3.384,2.685,9.761,9.761,0,0,0-1.782,4.549,9.656,9.656,0,0,0,.408,4.818,8.215,8.215,0,0,0,2.47,3.543,7.77,7.77,0,0,0,3.909,1.715,8.429,8.429,0,0,0,1.226.091m27.423-18.388a3.482,3.482,0,0,1,1.013.158,3.083,3.083,0,0,1,1.941,1.571,3.228,3.228,0,0,1,.2,2.5l-3.96,13.078a7.016,7.016,0,0,0-.021,5.081,5.61,5.61,0,0,0,3.711,2.781,7.958,7.958,0,0,0,2.295.376,4.587,4.587,0,0,0,2.387-.616,7.022,7.022,0,0,0,2.8-4.238l3.96-13.078a3.225,3.225,0,0,1,1.553-1.975,3,3,0,0,1,1.474-.389,3.482,3.482,0,0,1,1.013.158,3.085,3.085,0,0,1,1.941,1.572,3.225,3.225,0,0,1,.2,2.5l-3.96,13.078q-1.653,5.459-5.656,7.731a10.149,10.149,0,0,1-5.1,1.29,15.981,15.981,0,0,1-4.622-.747q-5.715-1.731-7.761-5.834t-.392-9.562l3.96-13.078a3.224,3.224,0,0,1,1.553-1.975,3,3,0,0,1,1.474-.388m-55.892-19.816A9.067,9.067,0,0,0,1651.7,637a8.639,8.639,0,0,0-2.654,1.388,9.439,9.439,0,0,0-.665-.685,8.914,8.914,0,0,0-6.173-2.394c-.127,0-.253,0-.381.007a9.069,9.069,0,0,0-4.778,1.542q-.406-.149-.825-.282a18.087,18.087,0,0,0-5.5-.827q-.387,0-.781.015a17.669,17.669,0,0,0-9.621,3.208,19.418,19.418,0,0,0-6.442,7.741,23.859,23.859,0,0,0,.786,20.881,19.251,19.251,0,0,0,7.1,7.255,18.049,18.049,0,0,0,9.206,2.46c.248,0,.5,0,.75-.013a16.412,16.412,0,0,0,5.852-1.285q.691-.3,1.341-.633a9,9,0,0,0,4.078.945c.124,0,.248,0,.375-.007a9.022,9.022,0,0,0,8.193-5.915,11.258,11.258,0,0,0,3.728,4.278,12.635,12.635,0,0,0,4.709,1.936,24.75,24.75,0,0,0,3.276.409c.227.012.446.016.663.016a12.65,12.65,0,0,0,5.927-1.469,9.533,9.533,0,0,0,3.288-2.771,19.972,19.972,0,0,0,3.1,3,20.526,20.526,0,0,0,9.8,4.115,22.391,22.391,0,0,0,3.235.24,20.124,20.124,0,0,0,7.333-1.367,19.825,19.825,0,0,0,6.758-4.374,16.551,16.551,0,0,0,1.195,3.17c2.1,4.223,5.908,7.193,11.3,8.827a21.881,21.881,0,0,0,6.321,1,15.965,15.965,0,0,0,7.988-2.055c4.007-2.273,6.824-6.017,8.37-11.126l3.96-13.078a9.027,9.027,0,0,0-6.047-11.378,9.385,9.385,0,0,0-2.709-.409,8.8,8.8,0,0,0-4.315,1.124,3.454,3.454,0,1,1-4.878-1.482,8.99,8.99,0,0,0-5.448-4.487,9.346,9.346,0,0,0-2.709-.409h0a8.8,8.8,0,0,0-4.308,1.12,9.015,9.015,0,0,0-4.289,5.291,20.124,20.124,0,0,0-5.9-7.572,20.408,20.408,0,0,0-9.826-4.165,22.1,22.1,0,0,0-3.2-.238,20.087,20.087,0,0,0-13.175,4.9,8.8,8.8,0,0,0-6.279-5.956,8.944,8.944,0,0,0-8.416-7.33c-.166-.008-.333-.013-.5-.013Zm-28.765,29.49a1.284,1.284,0,0,1-.731-.169,2.131,2.131,0,0,1-.788-.888,4.512,4.512,0,0,1-.48-1.995,4.645,4.645,0,0,1,.326-2.076,2.141,2.141,0,0,1,.722-.949,1.357,1.357,0,0,1,.83-.23l.124,0a1.347,1.347,0,0,1,.78.171,2.142,2.142,0,0,1,.783.89,4.647,4.647,0,0,1,.48,2.043,4.5,4.5,0,0,1-.329,2.023,2.113,2.113,0,0,1-.713.943,1.446,1.446,0,0,1-.885.235l-.118,0Zm37.065-4.919c.1-.016.2-.035.293-.054-.125.566-.232,1.146-.317,1.735q-.055.371-.1.738l.122-2.419Zm20.17,7.777a2.554,2.554,0,0,1-.377-.029,1.926,1.926,0,0,1-1.02-.43,2.336,2.336,0,0,1-.716-1.066,4,4,0,0,1-.105-1.935,4.109,4.109,0,0,1,.664-1.875,2.34,2.34,0,0,1,.991-.818,1.779,1.779,0,0,1,.723-.148,2.758,2.758,0,0,1,.38.029,1.9,1.9,0,0,1,1.018.428,2.353,2.353,0,0,1,.719,1.071,4.142,4.142,0,0,1,.1,1.985,3.982,3.982,0,0,1-.658,1.824,2.344,2.344,0,0,1-1,.819,1.77,1.77,0,0,1-.719.145Z" transform="translate(-1611.848 -630.162)"/>
  </g>
  <path id="Path_125" data-name="Path 125" d="M1608.108,770.57a9.1,9.1,0,0,1,12.868-12.869,29.589,29.589,0,0,0,41.8,0,9.1,9.1,0,0,1,12.869,12.868A47.808,47.808,0,0,1,1608.108,770.57Z" transform="translate(-1055.137 -475.123)" fill="#db1e5e"/>
</svg>
